\relax 
\providecommand\hyper@newdestlabel[2]{}
\providecommand\HyperFirstAtBeginDocument{\AtBeginDocument}
\HyperFirstAtBeginDocument{\ifx\hyper@anchor\@undefined
\global\let\oldcontentsline\contentsline
\gdef\contentsline#1#2#3#4{\oldcontentsline{#1}{#2}{#3}}
\global\let\oldnewlabel\newlabel
\gdef\newlabel#1#2{\newlabelxx{#1}#2}
\gdef\newlabelxx#1#2#3#4#5#6{\oldnewlabel{#1}{{#2}{#3}}}
\AtEndDocument{\ifx\hyper@anchor\@undefined
\let\contentsline\oldcontentsline
\let\newlabel\oldnewlabel
\fi}
\fi}
\global\let\hyper@last\relax 
\gdef\HyperFirstAtBeginDocument#1{#1}
\providecommand*\HyPL@Entry[1]{}
\citation{angus2000}
\citation{icu-mortality}
\citation{icu-evidence}
\citation{bigdata-promise}
\citation{bigdata-mining}
\citation{mimic-nature}
\citation{kahn-data-2012}
\citation{cdm-review}
\citation{data-enclave}
\citation{cdm-comparison}
\citation{omop-replicability}
\citation{fhir-deep}
\citation{imi-protect}
\HyPL@Entry{0<</S/D>>}
\citation{omop-german}
\citation{omop-nashville}
\citation{omop-bigboy}
\citation{omop-eval}
\citation{omop-concept-impact}
\citation{omop-replicability}
\citation{mimic-omop-previous}
\citation{cdm-review}
\citation{omop-vs-pcornet}
\citation{mimic-i2b2}
\citation{moody-quality}
\citation{kahn-data-2012}
\citation{omop-vs-pcornet}
\citation{kahn-quality}
\citation{moody-quality}
\citation{kahn-quality}
\citation{omop-nashville}
\citation{achilles-evaluation}
\@writefile{lot}{\contentsline {table}{\numberline {1}{\ignorespaces Transformation Quality Evaluation Metrics}}{4}{table.0.1}}
\newlabel{table:quality}{{1}{4}{Transformation Quality Evaluation Metrics}{table.0.1}{}}
\citation{mimic-nature}
\newlabel{lst:original}{{1}{5}{Original table microbiology SQL query}{lstlisting.0.1}{}}
\@writefile{lol}{\contentsline {lstlisting}{\numberline {1}Original table microbiology SQL query}{5}{lstlisting.0.1}}
\citation{achilles-evaluation}
\@writefile{lot}{\contentsline {table}{\numberline {2}{\ignorespaces MIMIC to OMOP data flows}}{6}{table.0.2}}
\newlabel{table:dispatch}{{2}{6}{MIMIC to OMOP data flows}{table.0.2}{}}
\citation{omop-vs-pcornet}
\@writefile{lot}{\contentsline {table}{\numberline {3}{\ignorespaces Baseline characteristics MIMIC versus OMOP}}{7}{table.0.3}}
\newlabel{table:statistics}{{3}{7}{Baseline characteristics MIMIC versus OMOP}{table.0.3}{}}
\@writefile{lot}{\contentsline {table}{\numberline {4}{\ignorespaces Data lost}}{7}{table.0.4}}
\newlabel{table:datalost}{{4}{7}{Data lost}{table.0.4}{}}
\@writefile{lot}{\contentsline {table}{\numberline {5}{\ignorespaces Terminology Mapping coverage}}{8}{table.0.5}}
\newlabel{table:mapping}{{5}{8}{Terminology Mapping coverage}{table.0.5}{}}
\newlabel{lst:optimized}{{2}{8}{Optimized and denormalized microbiology table SQL query}{lstlisting.0.2}{}}
\@writefile{lol}{\contentsline {lstlisting}{\numberline {2}Optimized and denormalized microbiology table SQL query}{8}{lstlisting.0.2}}
\citation{schema-matching}
\citation{johnson-reprod}
\citation{section-extraction}
\citation{closure-table}
\bibdata{aes2e.bib}
\bibcite{angus2000}{1}
\bibcite{icu-mortality}{2}
\bibcite{icu-evidence}{3}
\bibcite{bigdata-promise}{4}
\bibcite{bigdata-mining}{5}
\bibcite{mimic-nature}{6}
\bibcite{kahn-data-2012}{7}
\bibcite{cdm-review}{8}
\bibcite{data-enclave}{9}
\bibcite{cdm-comparison}{10}
\bibcite{omop-replicability}{11}
\bibcite{fhir-deep}{12}
\bibcite{imi-protect}{13}
\bibcite{omop-german}{14}
\bibcite{omop-nashville}{15}
\bibcite{omop-bigboy}{16}
\bibcite{omop-eval}{17}
\bibcite{omop-concept-impact}{18}
\bibcite{mimic-omop-previous}{19}
\bibcite{omop-vs-pcornet}{20}
\bibcite{mimic-i2b2}{21}
\bibcite{moody-quality}{22}
\bibcite{kahn-quality}{23}
\bibcite{achilles-evaluation}{24}
\bibcite{schema-matching}{25}
\bibcite{johnson-reprod}{26}
\bibcite{section-extraction}{27}
\bibcite{closure-table}{28}
\bibstyle{aes2e.bst}
